<?xml version="1.0" encoding="UTF-8"?>
<svg width="18px" height="18px" viewBox="0 0 18 18" version="1.1" xmlns="http://www.w3.org/2000/svg" xmlns:xlink="http://www.w3.org/1999/xlink">
    <!-- Generator: Sketch 43.1 (39012) - http://www.bohemiancoding.com/sketch -->
    <title>Artboard</title>
    <desc>Created with Sketch.</desc>
    <defs></defs>
    <g id="Page-1" stroke="none" stroke-width="1" fill="none" fill-rule="evenodd">
        <g id="Artboard" fill="#000000">
            <polygon id="★" points="16.2871094 7.18603516 11.8710937 10.3959961 13.5688477 15.6098633 9.14355469 12.390625 4.70898438 15.6098633 6.40673828 10.3959961 2 7.18603516 7.44580078 7.18603516 9.14355469 2 10.8320312 7.18603516"></polygon>
        </g>
    </g>
</svg>