<?xml version="1.0" encoding="UTF-8" standalone="no"?>
<svg width="18px" height="18px" viewBox="0 0 18 18" version="1.1" xmlns="http://www.w3.org/2000/svg" xmlns:xlink="http://www.w3.org/1999/xlink">
    <!-- Generator: Sketch 49.2 (51160) - http://www.bohemiancoding.com/sketch -->
    <title>google</title>
    <desc>Created with Sketch.</desc>
    <defs></defs>
    <g id="google" stroke="none" stroke-width="1" fill="none" fill-rule="evenodd">
        <path d="M9,8.1425 L9,10.2 L12.403,10.2 C12.2655,11.0825 11.375,12.787 9,12.787 C6.9525,12.787 5.2805,11.0925 5.2805,9 C5.2805,6.9075 6.953,5.213 9,5.213 C10.165,5.213 10.9455,5.7075 11.3925,6.1375 L13.0195,4.5685 C11.9745,3.593 10.6195,3 9,3 C5.6825,3 3,5.6825 3,9 C3,12.3175 5.6825,15 9,15 C12.463,15 14.76,12.5655 14.76,9.137 C14.76,8.743 14.7175,8.442 14.6655,8.1425 L9,8.1425 Z" id="Shape" fill="#000000" fill-rule="nonzero"></path>
    </g>
</svg>