<?xml version="1.0" encoding="UTF-8" standalone="no"?>
<svg width="18px" height="18px" viewBox="0 0 18 18" version="1.1" xmlns="http://www.w3.org/2000/svg" xmlns:xlink="http://www.w3.org/1999/xlink">
    <!-- Generator: Sketch 49.2 (51160) - http://www.bohemiancoding.com/sketch -->
    <title>yahoo</title>
    <desc>Created with Sketch.</desc>
    <defs></defs>
    <g id="yahoo" stroke="none" stroke-width="1" fill="none" fill-rule="evenodd">
        <g id="Group" transform="translate(3.000000, 3.000000)" fill="#000000" fill-rule="nonzero">
            <ellipse id="Oval" cx="9.42857143" cy="11.1780822" rx="1" ry="1"></ellipse>
            <path d="M10.0201682,0 L5.79034312,6.81326604 L5.87247564,11.8356164 C5.25648169,11.6798846 4.68155401,11.6798846 4.14769259,11.8356164 L4.27089138,6.81326604 L0,0 L0.205331316,0.0778658976 C0.739192738,0.194664744 1.27305416,0.194664744 1.76584932,0.0778658976 L1.88904811,0.0778658976 C2.340777,0.934390771 5.01008411,5.10021629 5.01008411,5.10021629 L8.17218638,0.0778658976 L8.29538517,0.0778658976 C9.1577767,0.31146359 10.0201682,0 10.0201682,0 Z M10.0612345,9.53857246 L9.77377065,9.42177361 L9.44524054,9.46070656 L10.3486983,0.97332372 C10.5129634,-0.428262437 12.319879,0.155731795 11.9502826,1.20692141 L10.0612345,9.53857246 Z" id="Shape"></path>
        </g>
    </g>
</svg>